…
dynamite_reviews = bind_rows(
  read_page_reviews(vec_urls[1]),
  read_page_reviews(vec_urls[2]),
  read_page_reviews(vec_urls[3]),
  read_page_reviews(vec_urls[4]),
  read_page_reviews(vec_urls[5])
)

dynamite_reviews
```

    ## # A tibble: 50 × 3
    ##    title                                                 stars text             
    ##    <chr>                                                 <dbl> <chr>            
    ##  1 I Just everyone to know this....                          5 VOTE FOR PEDRO !…
    ##  2 the cobweb in his hair during the bike ramp scene lol     5 5 stars for bein…
    ##  3 Best quirky movie ever                                    5 You all know the…
    ##  4 Classic Film                                              5 Had to order thi…
    ##  5 hehehehe                                                  5 goodjobboys      
    ##  6 Painful                                                   1 I think I sneeze…
    ##  7 GRAND                                                     5 GRAND            
    ##  8 Hello, 90s                                                5 So nostalgic mov…
    ##  9 Cult Classic                                              5 Watched it with …
    ## 10 Format was inaccurate                                     4 There was an opt…
    ## # … with 40 more rows
…
